             total       used       free     shared    buffers     cached
Mem:          3948       3359        588          6        858       1040
-/+ buffers/cache:       1460       2487
Swap:            0          0          0
