Welcome to Ubuntu 14.04.3 LTS (GNU/Linux 3.11.0-12-generic x86_64)

 * Documentation:  https://help.ubuntu.com/

  System information as of Fri Oct 16 12:38:07 EDT 2015

  System load:  0.0                Processes:           81
  Usage of /:   13.0% of 19.56GB   Users logged in:     0
  Memory usage: 23%                IP address for eth0: 107.170.15.174
  Swap usage:   0%                 IP address for eth1: 10.128.253.14

  Graph this data and manage this system at:
    https://landscape.canonical.com/

14 packages can be updated.
10 updates are security updates.

Last login: Fri Oct 16 12:38:07 2015 from 
